{
  "__type__": "cc.AnimationClip",
  "_name": "FireworkIdle",
  "_objFlags": 0,
  "_rawFiles": null,
  "_duration": 0.85,
  "sample": 60,
  "speed": 0.5,
  "wrapMode": "2",
  "curveData": {
    "comps": {
      "cc.Sprite": {
        "spriteFrame": [
          {
            "frame": 0,
            "value": {
              "__uuid__": "0677540d-e7c4-4624-9d84-ea477489ee9a"
            }
          },
          {
            "frame": 0.016666666666666666,
            "value": {
              "__uuid__": "d1584a0a-a182-43d4-ba43-838eeb82b728"
            }
          },
          {
            "frame": 0.03333333333333333,
            "value": {
              "__uuid__": "0106440e-d5ab-4489-b776-d0213d4fe9cb"
            }
          },
          {
            "frame": 0.05,
            "value": {
              "__uuid__": "3bbbe6ae-cf81-4926-9eaf-41340656266e"
            }
          },
          {
            "frame": 0.06666666666666667,
            "value": {
              "__uuid__": "db04dc22-0570-461c-8219-a9c4a8840d19"
            }
          },
          {
            "frame": 0.08333333333333333,
            "value": {
              "__uuid__": "4f84da7c-2b7d-42a3-a059-847434fdc04c"
            }
          },
          {
            "frame": 0.1,
            "value": {
              "__uuid__": "5629b378-f01f-4774-9a07-23eec31fb453"
            }
          },
          {
            "frame": 0.11666666666666667,
            "value": {
              "__uuid__": "76077b60-bbc1-4228-b53d-708065dae2f1"
            }
          },
          {
            "frame": 0.13333333333333333,
            "value": {
              "__uuid__": "3708273c-e0d2-4947-83cc-273ebbdfc7ec"
            }
          },
          {
            "frame": 0.15,
            "value": {
              "__uuid__": "38148a6d-d035-4ebb-b32d-a97718fc41b9"
            }
          },
          {
            "frame": 0.16666666666666666,
            "value": {
              "__uuid__": "4c3e0b4e-ea69-4fc1-b821-e7460212d7ab"
            }
          },
          {
            "frame": 0.18333333333333332,
            "value": {
              "__uuid__": "42ab19f2-553a-4209-b7aa-c9894f140f85"
            }
          },
          {
            "frame": 0.2,
            "value": {
              "__uuid__": "81566ab8-4a86-4cd6-98b3-e4f93504a89a"
            }
          },
          {
            "frame": 0.21666666666666667,
            "value": {
              "__uuid__": "9bdd095c-0c71-4822-9087-1523ab6133ca"
            }
          },
          {
            "frame": 0.23333333333333334,
            "value": {
              "__uuid__": "a4f124d8-291d-48b6-8b87-e85f3c25c2c6"
            }
          },
          {
            "frame": 0.25,
            "value": {
              "__uuid__": "8680ab4f-078d-4417-863e-9ab01b7c6a29"
            }
          },
          {
            "frame": 0.26666666666666666,
            "value": {
              "__uuid__": "cb6ff9be-f4af-4df5-8a6c-e2f8572bd1d3"
            }
          },
          {
            "frame": 0.2833333333333333,
            "value": {
              "__uuid__": "447507ec-2009-45f4-b079-7626c9005582"
            }
          },
          {
            "frame": 0.3,
            "value": {
              "__uuid__": "ab223048-14cf-4bf3-a3b8-2816e88e6096"
            }
          },
          {
            "frame": 0.31666666666666665,
            "value": {
              "__uuid__": "75cc7fd9-d7c0-48aa-9f97-2eb72e13c79f"
            }
          },
          {
            "frame": 0.3333333333333333,
            "value": {
              "__uuid__": "dc855edb-c3e5-4155-88aa-3e9675ea5e5e"
            }
          },
          {
            "frame": 0.35,
            "value": {
              "__uuid__": "a8d52083-3ffc-4b97-8dfb-d8ebd79bbbdd"
            }
          },
          {
            "frame": 0.36666666666666664,
            "value": {
              "__uuid__": "06f4b318-d0b8-4fcf-9cf3-253d5ec08a0f"
            }
          },
          {
            "frame": 0.38333333333333336,
            "value": {
              "__uuid__": "3a1fada1-b8f8-4ba0-a932-71f565a41196"
            }
          },
          {
            "frame": 0.4,
            "value": {
              "__uuid__": "bae0b586-f2f0-406f-835f-32f3da80b5fb"
            }
          },
          {
            "frame": 0.4166666666666667,
            "value": {
              "__uuid__": "24b57e0a-210a-46b0-ac96-d32700906b71"
            }
          },
          {
            "frame": 0.43333333333333335,
            "value": {
              "__uuid__": "926de11e-cceb-4f44-a992-c59b1f12ea78"
            }
          },
          {
            "frame": 0.45,
            "value": {
              "__uuid__": "35d26291-5942-42b5-876a-95a3c006e986"
            }
          },
          {
            "frame": 0.4666666666666667,
            "value": {
              "__uuid__": "d636437e-2385-4533-a011-9a590a47207b"
            }
          },
          {
            "frame": 0.48333333333333334,
            "value": {
              "__uuid__": "7c9665da-ad83-41a7-a48c-55f6505bd0c9"
            }
          },
          {
            "frame": 0.5,
            "value": {
              "__uuid__": "15edfb58-5c3a-46d3-8060-175eaa528c76"
            }
          },
          {
            "frame": 0.5166666666666667,
            "value": {
              "__uuid__": "b31451d4-dc98-4551-b114-9dba5e9faad8"
            }
          },
          {
            "frame": 0.5333333333333333,
            "value": {
              "__uuid__": "529a0540-f9ac-4760-8dfd-8d0c59d82741"
            }
          },
          {
            "frame": 0.55,
            "value": {
              "__uuid__": "ea1f8105-ca9f-4357-8f8e-9052b1d5c9a5"
            }
          },
          {
            "frame": 0.5666666666666667,
            "value": {
              "__uuid__": "ccff9a26-e12a-451b-9d12-6bfeceb297c1"
            }
          },
          {
            "frame": 0.5833333333333334,
            "value": {
              "__uuid__": "d6c6905a-82d1-4606-9dcb-74cbda8a54c9"
            }
          },
          {
            "frame": 0.6,
            "value": {
              "__uuid__": "513216b0-396f-4d3a-8c99-93dab498dc64"
            }
          },
          {
            "frame": 0.6166666666666667,
            "value": {
              "__uuid__": "84e45fdc-0984-4f0b-bc9c-92a328aa55c2"
            }
          },
          {
            "frame": 0.6333333333333333,
            "value": {
              "__uuid__": "cdefa5d1-755e-453e-b9be-b8753a104a57"
            }
          },
          {
            "frame": 0.65,
            "value": {
              "__uuid__": "17d9fee4-b564-409e-877a-e30d7b03ab37"
            }
          },
          {
            "frame": 0.6666666666666666,
            "value": {
              "__uuid__": "7cec90e4-2cec-4378-b2e8-254d49e5cdee"
            }
          },
          {
            "frame": 0.6833333333333333,
            "value": {
              "__uuid__": "524ff155-0cf7-4f4b-b529-dc8b3a45738d"
            }
          },
          {
            "frame": 0.7,
            "value": {
              "__uuid__": "0b090edd-4d8a-428a-84ec-42dd4de706b4"
            }
          },
          {
            "frame": 0.7166666666666667,
            "value": {
              "__uuid__": "a4cab809-2d28-4a14-b6f5-a76311778eff"
            }
          },
          {
            "frame": 0.7333333333333333,
            "value": {
              "__uuid__": "2e319448-985c-4d91-b65b-e87db44fa3fe"
            }
          },
          {
            "frame": 0.75,
            "value": {
              "__uuid__": "ae4fb26c-1be8-4057-946b-78f1b3613603"
            }
          },
          {
            "frame": 0.7666666666666667,
            "value": {
              "__uuid__": "37641e2c-cc3d-44c4-86a3-cac303742770"
            }
          },
          {
            "frame": 0.7833333333333333,
            "value": {
              "__uuid__": "2961c099-339f-4468-9ad4-b9b37ff22bc7"
            }
          },
          {
            "frame": 0.8,
            "value": {
              "__uuid__": "294d55ed-3422-4e35-86e1-09695d0a6b0d"
            }
          },
          {
            "frame": 0.8166666666666667,
            "value": {
              "__uuid__": "e5d73fbe-e854-41d9-97dd-38a3544d0f48"
            }
          },
          {
            "frame": 0.8333333333333334,
            "value": {
              "__uuid__": "fff4d304-b14c-4ea4-af5f-04f3fe720130"
            }
          }
        ]
      }
    }
  },
  "events": []
}